C:\Users\pe-teacher02\apipractitioner\src\main\java\net\techu\api\controllers\APIProductsController.java
C:\Users\pe-teacher02\apipractitioner\src\main\java\net\techu\api\ProductNorthwind.java
C:\Users\pe-teacher02\apipractitioner\src\main\java\net\techu\api\ApiProductsApplication.java
C:\Users\pe-teacher02\apipractitioner\src\main\java\net\techu\api\service\VehiculoService.java
C:\Users\pe-teacher02\apipractitioner\src\main\java\net\techu\api\ApiApplication.java
C:\Users\pe-teacher02\apipractitioner\src\main\java\net\techu\api\VehiculoApplication.java
C:\Users\pe-teacher02\apipractitioner\src\main\java\net\techu\api\ClienteNorthwind.java
C:\Users\pe-teacher02\apipractitioner\src\main\java\net\techu\api\SwaggerConfig.java
C:\Users\pe-teacher02\apipractitioner\src\main\java\net\techu\api\controllers\VehiculoController.java
C:\Users\pe-teacher02\apipractitioner\src\main\java\net\techu\api\HolaController.java
C:\Users\pe-teacher02\apipractitioner\src\main\java\net\techu\api\service\VehiculoServiceImpl.java
C:\Users\pe-teacher02\apipractitioner\src\main\java\net\techu\api\controllers\ProductosController.java
C:\Users\pe-teacher02\apipractitioner\src\main\java\net\techu\api\controllers\APIClientesController.java
C:\Users\pe-teacher02\apipractitioner\src\main\java\net\techu\api\GestorREST.java
C:\Users\pe-teacher02\apipractitioner\src\main\java\net\techu\api\Producto.java
C:\Users\pe-teacher02\apipractitioner\src\main\java\net\techu\api\Saludo.java
C:\Users\pe-teacher02\apipractitioner\src\main\java\net\techu\api\repository\VehiculoRepositoryImpl.java
C:\Users\pe-teacher02\apipractitioner\src\main\java\net\techu\api\repository\VehiculoRepository.java
C:\Users\pe-teacher02\apipractitioner\src\main\java\net\techu\api\ListaProductNorthwind.java
C:\Users\pe-teacher02\apipractitioner\src\main\java\net\techu\api\ListaClientesNorthwind.java
C:\Users\pe-teacher02\apipractitioner\src\main\java\net\techu\api\models\Vehiculo.java
