C:\Users\pe-teacher02\apipractitioner\src\test\java\net\techu\api\ApiApplicationTests.java
C:\Users\pe-teacher02\apipractitioner\src\test\java\net\techu\api\HolaControllerTest.java
C:\Users\pe-teacher02\apipractitioner\src\test\java\net\techu\api\ProductosControllerTest.java
